SM1: Formant tracking, preprocessing, and normalisation
…
vowel_models <- vowel_models %>% 
  mutate(
    predictions = map(lm_fit, ~ get_predictions(.x, to_predict))
  )

vowel_predictions <- vowel_models %>% 
  select(vowel, formant, predictions) %>% 
  unnest(predictions)

vowel_predictions

# A tibble: 1,140 × 5
# Groups:   vowel, formant [30]
   vowel formant gender   age   fit
   <fct> <chr>   <chr>  <int> <dbl>
 1 TRAP  F1_50   M         47  849.
 2 TRAP  F1_50   M         48  844.
 3 TRAP  F1_50   M         49  838.
 4 TRAP  F1_50   M         50  833.
 5 TRAP  F1_50   M         51  828.
 6 TRAP  F1_50   M         52  822.
 7 TRAP  F1_50   M         53  817.
 8 TRAP  F1_50   M         54  812.
 9 TRAP  F1_50   M         55  806.
10 TRAP  F1_50   M         56  801.
# ℹ 1,130 more rows
…
